2019-12-18 01:14:23,419 INFO: app startup [in /home/cserv1_a/soc_ug/sc17sdw/flask/app/__init__.py:30]
2019-12-18 01:14:25,147 INFO: {'password': ['Passwords must match'], 'email': [u'Invalid email address.']} [in /home/cserv1_a/soc_ug/sc17sdw/flask/app/views.py:147]
2019-12-18 01:15:07,839 INFO: app startup [in /home/cserv1_a/soc_ug/sc17sdw/flask/app/__init__.py:30]
2019-12-18 01:17:00,657 INFO: app startup [in /home/cserv1_a/soc_ug/sc17sdw/flask/app/__init__.py:30]
2019-12-18 01:18:28,547 INFO: app startup [in /home/cserv1_a/soc_ug/sc17sdw/flask/app/__init__.py:30]
2019-12-18 01:21:57,484 INFO: app startup [in /home/cserv1_a/soc_ug/sc17sdw/flask/app/__init__.py:30]
2019-12-18 01:21:57,484 INFO: app startup [in /home/cserv1_a/soc_ug/sc17sdw/flask/app/__init__.py:30]
2019-12-18 01:22:41,526 INFO: app startup [in /home/cserv1_a/soc_ug/sc17sdw/flask/app/__init__.py:30]
2019-12-18 01:22:41,526 INFO: app startup [in /home/cserv1_a/soc_ug/sc17sdw/flask/app/__init__.py:30]
2019-12-18 01:22:41,526 INFO: app startup [in /home/cserv1_a/soc_ug/sc17sdw/flask/app/__init__.py:30]
2019-12-18 01:22:53,519 INFO: app startup [in /home/cserv1_a/soc_ug/sc17sdw/flask/app/__init__.py:30]
2019-12-18 01:22:53,519 INFO: app startup [in /home/cserv1_a/soc_ug/sc17sdw/flask/app/__init__.py:30]
2019-12-18 01:22:53,519 INFO: app startup [in /home/cserv1_a/soc_ug/sc17sdw/flask/app/__init__.py:30]
2019-12-18 01:22:53,519 INFO: app startup [in /home/cserv1_a/soc_ug/sc17sdw/flask/app/__init__.py:30]
2019-12-18 01:22:54,856 INFO: app startup [in /home/cserv1_a/soc_ug/sc17sdw/flask/app/__init__.py:30]
2019-12-18 01:22:59,996 INFO: app startup [in /home/cserv1_a/soc_ug/sc17sdw/flask/app/__init__.py:30]
2019-12-18 01:23:00,564 INFO: app startup [in /home/cserv1_a/soc_ug/sc17sdw/flask/app/__init__.py:30]
2019-12-18 01:23:38,363 INFO: app startup [in /home/cserv1_a/soc_ug/sc17sdw/flask/app/__init__.py:30]
2019-12-18 01:23:43,825 INFO: Ticket Purchased [in /home/cserv1_a/soc_ug/sc17sdw/flask/app/views.py:96]
2019-12-18 01:23:58,853 INFO: Ticket Purchased [in /home/cserv1_a/soc_ug/sc17sdw/flask/app/views.py:96]
2019-12-18 01:25:05,709 INFO: app startup [in /home/cserv1_a/soc_ug/sc17sdw/flask/app/__init__.py:30]
2019-12-18 01:25:36,676 INFO: app startup [in /home/cserv1_a/soc_ug/sc17sdw/flask/app/__init__.py:30]
2019-12-18 01:25:53,099 INFO: password change from [in /home/cserv1_a/soc_ug/sc17sdw/flask/app/views.py:164]
2019-12-18 01:25:55,986 INFO: password change from [in /home/cserv1_a/soc_ug/sc17sdw/flask/app/views.py:164]
2019-12-18 01:28:18,695 INFO: password change from [in /home/cserv1_a/soc_ug/sc17sdw/flask/app/views.py:164]
2019-12-18 01:30:37,527 INFO: app startup [in /home/cserv1_a/soc_ug/sc17sdw/flask/app/__init__.py:30]
2019-12-18 01:30:51,895 INFO: app startup [in /home/cserv1_a/soc_ug/sc17sdw/flask/app/__init__.py:30]
2019-12-18 02:29:49,858 INFO: app startup [in /home/cserv1_a/soc_ug/sc17sdw/flask/app/__init__.py:30]
2019-12-18 03:37:59,356 INFO: Ticket Purchased [in /home/cserv1_a/soc_ug/sc17sdw/flask/app/views.py:82]
2019-12-18 03:39:20,252 INFO: app startup [in /home/cserv1_a/soc_ug/sc17sdw/flask/app/__init__.py:30]
2019-12-18 03:39:24,671 INFO: Ticket Purchased bybobross [in /home/cserv1_a/soc_ug/sc17sdw/flask/app/views.py:82]
2019-12-18 03:40:28,964 INFO: app startup [in /home/cserv1_a/soc_ug/sc17sdw/flask/app/__init__.py:30]
2019-12-18 03:41:01,429 INFO: app startup [in /home/cserv1_a/soc_ug/sc17sdw/flask/app/__init__.py:30]
2019-12-18 03:43:32,800 INFO: app startup [in /home/cserv1_a/soc_ug/sc17sdw/flask/app/__init__.py:30]
2019-12-18 03:43:32,800 INFO: app startup [in /home/cserv1_a/soc_ug/sc17sdw/flask/app/__init__.py:30]
2019-12-18 03:43:37,686 INFO: password change from [in /home/cserv1_a/soc_ug/sc17sdw/flask/app/views.py:150]
2019-12-18 03:43:37,686 INFO: password change from [in /home/cserv1_a/soc_ug/sc17sdw/flask/app/views.py:150]
2019-12-18 03:43:50,781 INFO: password change from [in /home/cserv1_a/soc_ug/sc17sdw/flask/app/views.py:150]
2019-12-18 03:43:50,781 INFO: password change from [in /home/cserv1_a/soc_ug/sc17sdw/flask/app/views.py:150]
2019-12-18 03:51:25,916 INFO: password change from [in /home/cserv1_a/soc_ug/sc17sdw/flask/app/views.py:150]
2019-12-18 03:51:25,916 INFO: password change from [in /home/cserv1_a/soc_ug/sc17sdw/flask/app/views.py:150]
2019-12-18 04:07:08,780 INFO: app startup [in /home/cserv1_a/soc_ug/sc17sdw/flask/app/__init__.py:30]
2019-12-18 04:07:59,506 INFO: app startup [in /home/cserv1_a/soc_ug/sc17sdw/flask/app/__init__.py:30]
2019-12-18 04:32:00,270 INFO: password change from [in /home/cserv1_a/soc_ug/sc17sdw/flask/app/views.py:150]
2019-12-18 04:32:40,884 INFO: password change from [in /home/cserv1_a/soc_ug/sc17sdw/flask/app/views.py:150]
2019-12-18 04:33:08,884 INFO: password change from [in /home/cserv1_a/soc_ug/sc17sdw/flask/app/views.py:150]
2019-12-18 04:36:17,161 INFO: app startup [in /home/cserv1_a/soc_ug/sc17sdw/flask/app/__init__.py:30]
2019-12-18 04:36:33,938 INFO: app startup [in /home/cserv1_a/soc_ug/sc17sdw/flask/app/__init__.py:30]
2019-12-18 04:36:41,688 INFO: app startup [in /home/cserv1_a/soc_ug/sc17sdw/flask/app/__init__.py:30]
2019-12-18 04:36:53,403 INFO: app startup [in /home/cserv1_a/soc_ug/sc17sdw/flask/app/__init__.py:30]
2019-12-18 04:43:55,213 INFO: password change from [in /home/cserv1_a/soc_ug/sc17sdw/flask/app/views.py:153]
2019-12-18 04:44:56,686 INFO: password change from [in /home/cserv1_a/soc_ug/sc17sdw/flask/app/views.py:153]
2019-12-18 04:50:27,296 INFO: app startup [in /home/cserv1_a/soc_ug/sc17sdw/flask/app/__init__.py:30]
2019-12-18 04:53:29,167 INFO: app startup [in /home/cserv1_a/soc_ug/sc17sdw/flask/app/__init__.py:30]
2019-12-18 04:53:29,167 INFO: app startup [in /home/cserv1_a/soc_ug/sc17sdw/flask/app/__init__.py:30]
2019-12-18 04:54:24,223 INFO: app startup [in /home/cserv1_a/soc_ug/sc17sdw/flask/app/__init__.py:30]
2019-12-18 04:54:56,907 INFO: app startup [in /home/cserv1_a/soc_ug/sc17sdw/flask/app/__init__.py:30]
2019-12-18 04:58:59,262 INFO: app startup [in /home/cserv1_a/soc_ug/sc17sdw/flask/app/__init__.py:30]
2019-12-18 04:59:07,429 INFO: app startup [in /home/cserv1_a/soc_ug/sc17sdw/flask/app/__init__.py:30]
2019-12-18 05:10:59,301 INFO: app startup [in /home/cserv1_a/soc_ug/sc17sdw/flask/app/__init__.py:30]
2019-12-18 05:11:15,952 INFO: app startup [in /home/cserv1_a/soc_ug/sc17sdw/flask/app/__init__.py:30]
2019-12-18 05:11:27,144 INFO: app startup [in /home/cserv1_a/soc_ug/sc17sdw/flask/app/__init__.py:30]
2019-12-18 05:11:29,308 INFO: {} [in /home/cserv1_a/soc_ug/sc17sdw/flask/app/views.py:138]
2019-12-18 05:11:29,481 INFO: {'csrf_token': ['The CSRF token is missing.']} [in /home/cserv1_a/soc_ug/sc17sdw/flask/app/views.py:138]
2019-12-18 05:11:55,845 INFO: app startup [in /home/cserv1_a/soc_ug/sc17sdw/flask/app/__init__.py:30]
2019-12-18 05:11:57,584 INFO: {} [in /home/cserv1_a/soc_ug/sc17sdw/flask/app/views.py:138]
2019-12-18 05:11:57,756 INFO: {'csrf_token': ['The CSRF token is missing.']} [in /home/cserv1_a/soc_ug/sc17sdw/flask/app/views.py:138]
2019-12-18 05:12:32,560 INFO: app startup [in /home/cserv1_a/soc_ug/sc17sdw/flask/app/__init__.py:30]
2019-12-18 05:12:34,535 INFO: {} [in /home/cserv1_a/soc_ug/sc17sdw/flask/app/views.py:138]
2019-12-18 05:12:34,709 INFO: {'csrf_token': ['The CSRF token is missing.']} [in /home/cserv1_a/soc_ug/sc17sdw/flask/app/views.py:138]
2019-12-18 05:13:21,010 INFO: app startup [in /home/cserv1_a/soc_ug/sc17sdw/flask/app/__init__.py:30]
2019-12-18 05:13:22,840 INFO: {} [in /home/cserv1_a/soc_ug/sc17sdw/flask/app/views.py:138]
2019-12-18 05:13:23,009 INFO: {'csrf_token': ['The CSRF token is missing.']} [in /home/cserv1_a/soc_ug/sc17sdw/flask/app/views.py:138]
2019-12-18 05:13:30,198 INFO: app startup [in /home/cserv1_a/soc_ug/sc17sdw/flask/app/__init__.py:30]
2019-12-18 05:13:31,959 INFO: {} [in /home/cserv1_a/soc_ug/sc17sdw/flask/app/views.py:138]
2019-12-18 05:13:32,146 INFO: {'csrf_token': ['The CSRF token is missing.']} [in /home/cserv1_a/soc_ug/sc17sdw/flask/app/views.py:138]
2019-12-18 05:14:43,884 INFO: app startup [in /home/cserv1_a/soc_ug/sc17sdw/flask/app/__init__.py:30]
2019-12-18 05:14:46,154 INFO: {} [in /home/cserv1_a/soc_ug/sc17sdw/flask/app/views.py:138]
2019-12-18 05:14:46,339 INFO: {'csrf_token': ['The CSRF token is missing.']} [in /home/cserv1_a/soc_ug/sc17sdw/flask/app/views.py:138]
2019-12-18 05:17:45,449 INFO: app startup [in /home/cserv1_a/soc_ug/sc17sdw/flask/app/__init__.py:30]
2019-12-18 05:17:49,448 INFO: {} [in /home/cserv1_a/soc_ug/sc17sdw/flask/app/views.py:138]
2019-12-18 05:17:49,633 INFO: {'csrf_token': ['The CSRF token is missing.']} [in /home/cserv1_a/soc_ug/sc17sdw/flask/app/views.py:138]
2019-12-18 05:18:09,922 INFO: app startup [in /home/cserv1_a/soc_ug/sc17sdw/flask/app/__init__.py:30]
2019-12-18 05:18:12,226 INFO: {} [in /home/cserv1_a/soc_ug/sc17sdw/flask/app/views.py:138]
2019-12-18 05:18:12,395 INFO: {'csrf_token': ['The CSRF token is missing.']} [in /home/cserv1_a/soc_ug/sc17sdw/flask/app/views.py:138]
2019-12-18 05:23:27,786 INFO: app startup [in /home/cserv1_a/soc_ug/sc17sdw/flask/app/__init__.py:30]
2019-12-18 05:23:31,723 INFO: {} [in /home/cserv1_a/soc_ug/sc17sdw/flask/app/views.py:138]
2019-12-18 05:23:31,900 INFO: {'csrf_token': ['The CSRF token is missing.']} [in /home/cserv1_a/soc_ug/sc17sdw/flask/app/views.py:138]
2019-12-18 05:23:52,372 INFO: app startup [in /home/cserv1_a/soc_ug/sc17sdw/flask/app/__init__.py:30]
2019-12-18 05:23:54,983 INFO: {} [in /home/cserv1_a/soc_ug/sc17sdw/flask/app/views.py:138]
2019-12-18 05:23:55,157 INFO: {'csrf_token': ['The CSRF token is missing.']} [in /home/cserv1_a/soc_ug/sc17sdw/flask/app/views.py:138]
2019-12-18 05:24:18,319 INFO: app startup [in /home/cserv1_a/soc_ug/sc17sdw/flask/app/__init__.py:30]
2019-12-18 05:24:25,404 INFO: {} [in /home/cserv1_a/soc_ug/sc17sdw/flask/app/views.py:138]
2019-12-18 05:24:25,571 INFO: {'csrf_token': ['The CSRF token is missing.']} [in /home/cserv1_a/soc_ug/sc17sdw/flask/app/views.py:138]
2019-12-18 05:24:49,279 INFO: app startup [in /home/cserv1_a/soc_ug/sc17sdw/flask/app/__init__.py:30]
2019-12-18 05:24:52,306 INFO: {} [in /home/cserv1_a/soc_ug/sc17sdw/flask/app/views.py:138]
