2019-12-18 00:40:09,449 INFO: app startup [in /home/cserv1_a/soc_ug/sc17sdw/flask/app/__init__.py:30]
2019-12-18 00:40:10,504 INFO: app startup [in /home/cserv1_a/soc_ug/sc17sdw/flask/app/__init__.py:30]
2019-12-18 00:42:02,433 INFO: app startup [in /home/cserv1_a/soc_ug/sc17sdw/flask/app/__init__.py:30]
2019-12-18 00:42:22,071 INFO: app startup [in /home/cserv1_a/soc_ug/sc17sdw/flask/app/__init__.py:30]
2019-12-18 00:42:37,437 INFO: app startup [in /home/cserv1_a/soc_ug/sc17sdw/flask/app/__init__.py:30]
2019-12-18 00:43:05,756 INFO: app startup [in /home/cserv1_a/soc_ug/sc17sdw/flask/app/__init__.py:30]
2019-12-18 00:43:33,645 INFO: app startup [in /home/cserv1_a/soc_ug/sc17sdw/flask/app/__init__.py:30]
2019-12-18 00:43:36,053 INFO: password change from [in /home/cserv1_a/soc_ug/sc17sdw/flask/app/views.py:163]
2019-12-18 00:43:49,204 INFO: {} [in /home/cserv1_a/soc_ug/sc17sdw/flask/app/views.py:147]
2019-12-18 00:44:10,566 INFO: User registered [in /home/cserv1_a/soc_ug/sc17sdw/flask/app/views.py:145]
2019-12-18 00:44:52,308 INFO: app startup [in /home/cserv1_a/soc_ug/sc17sdw/flask/app/__init__.py:30]
2019-12-18 00:45:12,377 INFO: Ticket Purchased [in /home/cserv1_a/soc_ug/sc17sdw/flask/app/views.py:96]
2019-12-18 00:47:46,092 INFO: app startup [in /home/cserv1_a/soc_ug/sc17sdw/flask/app/__init__.py:30]
2019-12-18 00:47:46,113 INFO: app startup [in /home/cserv1_a/soc_ug/sc17sdw/flask/app/__init__.py:30]
2019-12-18 00:47:46,113 INFO: app startup [in /home/cserv1_a/soc_ug/sc17sdw/flask/app/__init__.py:30]
2019-12-18 00:50:51,590 INFO: app startup [in /home/cserv1_a/soc_ug/sc17sdw/flask/app/__init__.py:30]
2019-12-18 00:50:51,590 INFO: app startup [in /home/cserv1_a/soc_ug/sc17sdw/flask/app/__init__.py:30]
2019-12-18 00:50:51,590 INFO: app startup [in /home/cserv1_a/soc_ug/sc17sdw/flask/app/__init__.py:30]
2019-12-18 00:51:33,224 INFO: app startup [in /home/cserv1_a/soc_ug/sc17sdw/flask/app/__init__.py:30]
2019-12-18 00:51:33,224 INFO: app startup [in /home/cserv1_a/soc_ug/sc17sdw/flask/app/__init__.py:30]
2019-12-18 00:51:33,224 INFO: app startup [in /home/cserv1_a/soc_ug/sc17sdw/flask/app/__init__.py:30]
2019-12-18 00:51:33,224 INFO: app startup [in /home/cserv1_a/soc_ug/sc17sdw/flask/app/__init__.py:30]
2019-12-18 00:51:54,085 INFO: app startup [in /home/cserv1_a/soc_ug/sc17sdw/flask/app/__init__.py:30]
2019-12-18 00:51:54,085 INFO: app startup [in /home/cserv1_a/soc_ug/sc17sdw/flask/app/__init__.py:30]
2019-12-18 00:51:54,085 INFO: app startup [in /home/cserv1_a/soc_ug/sc17sdw/flask/app/__init__.py:30]
2019-12-18 00:51:54,085 INFO: app startup [in /home/cserv1_a/soc_ug/sc17sdw/flask/app/__init__.py:30]
2019-12-18 00:51:54,085 INFO: app startup [in /home/cserv1_a/soc_ug/sc17sdw/flask/app/__init__.py:30]
2019-12-18 00:52:15,275 INFO: app startup [in /home/cserv1_a/soc_ug/sc17sdw/flask/app/__init__.py:30]
2019-12-18 00:52:15,275 INFO: app startup [in /home/cserv1_a/soc_ug/sc17sdw/flask/app/__init__.py:30]
2019-12-18 00:52:15,275 INFO: app startup [in /home/cserv1_a/soc_ug/sc17sdw/flask/app/__init__.py:30]
2019-12-18 00:52:15,275 INFO: app startup [in /home/cserv1_a/soc_ug/sc17sdw/flask/app/__init__.py:30]
2019-12-18 00:52:15,275 INFO: app startup [in /home/cserv1_a/soc_ug/sc17sdw/flask/app/__init__.py:30]
2019-12-18 00:52:15,275 INFO: app startup [in /home/cserv1_a/soc_ug/sc17sdw/flask/app/__init__.py:30]
2019-12-18 00:53:43,773 INFO: app startup [in /home/cserv1_a/soc_ug/sc17sdw/flask/app/__init__.py:30]
2019-12-18 00:53:43,773 INFO: app startup [in /home/cserv1_a/soc_ug/sc17sdw/flask/app/__init__.py:30]
2019-12-18 00:53:43,773 INFO: app startup [in /home/cserv1_a/soc_ug/sc17sdw/flask/app/__init__.py:30]
2019-12-18 00:53:43,773 INFO: app startup [in /home/cserv1_a/soc_ug/sc17sdw/flask/app/__init__.py:30]
2019-12-18 00:53:43,773 INFO: app startup [in /home/cserv1_a/soc_ug/sc17sdw/flask/app/__init__.py:30]
2019-12-18 00:53:43,773 INFO: app startup [in /home/cserv1_a/soc_ug/sc17sdw/flask/app/__init__.py:30]
2019-12-18 00:53:43,773 INFO: app startup [in /home/cserv1_a/soc_ug/sc17sdw/flask/app/__init__.py:30]
2019-12-18 00:54:42,409 INFO: app startup [in /home/cserv1_a/soc_ug/sc17sdw/flask/app/__init__.py:30]
2019-12-18 00:54:42,409 INFO: app startup [in /home/cserv1_a/soc_ug/sc17sdw/flask/app/__init__.py:30]
2019-12-18 00:54:42,409 INFO: app startup [in /home/cserv1_a/soc_ug/sc17sdw/flask/app/__init__.py:30]
2019-12-18 00:54:42,409 INFO: app startup [in /home/cserv1_a/soc_ug/sc17sdw/flask/app/__init__.py:30]
2019-12-18 00:54:42,409 INFO: app startup [in /home/cserv1_a/soc_ug/sc17sdw/flask/app/__init__.py:30]
2019-12-18 00:54:42,409 INFO: app startup [in /home/cserv1_a/soc_ug/sc17sdw/flask/app/__init__.py:30]
2019-12-18 00:54:42,409 INFO: app startup [in /home/cserv1_a/soc_ug/sc17sdw/flask/app/__init__.py:30]
2019-12-18 00:54:42,409 INFO: app startup [in /home/cserv1_a/soc_ug/sc17sdw/flask/app/__init__.py:30]
2019-12-18 00:55:58,291 INFO: app startup [in /home/cserv1_a/soc_ug/sc17sdw/flask/app/__init__.py:30]
2019-12-18 00:56:00,433 INFO: app startup [in /home/cserv1_a/soc_ug/sc17sdw/flask/app/__init__.py:30]
2019-12-18 00:56:28,668 INFO: app startup [in /home/cserv1_a/soc_ug/sc17sdw/flask/app/__init__.py:30]
2019-12-18 00:56:28,668 INFO: app startup [in /home/cserv1_a/soc_ug/sc17sdw/flask/app/__init__.py:30]
2019-12-18 00:56:38,167 INFO: app startup [in /home/cserv1_a/soc_ug/sc17sdw/flask/app/__init__.py:30]
2019-12-18 00:56:38,167 INFO: app startup [in /home/cserv1_a/soc_ug/sc17sdw/flask/app/__init__.py:30]
2019-12-18 00:56:38,167 INFO: app startup [in /home/cserv1_a/soc_ug/sc17sdw/flask/app/__init__.py:30]
2019-12-18 00:56:56,556 INFO: app startup [in /home/cserv1_a/soc_ug/sc17sdw/flask/app/__init__.py:30]
2019-12-18 00:56:56,556 INFO: app startup [in /home/cserv1_a/soc_ug/sc17sdw/flask/app/__init__.py:30]
2019-12-18 00:56:56,556 INFO: app startup [in /home/cserv1_a/soc_ug/sc17sdw/flask/app/__init__.py:30]
2019-12-18 00:56:56,556 INFO: app startup [in /home/cserv1_a/soc_ug/sc17sdw/flask/app/__init__.py:30]
2019-12-18 00:57:09,434 INFO: app startup [in /home/cserv1_a/soc_ug/sc17sdw/flask/app/__init__.py:30]
2019-12-18 00:57:09,434 INFO: app startup [in /home/cserv1_a/soc_ug/sc17sdw/flask/app/__init__.py:30]
2019-12-18 00:57:09,434 INFO: app startup [in /home/cserv1_a/soc_ug/sc17sdw/flask/app/__init__.py:30]
2019-12-18 00:57:09,434 INFO: app startup [in /home/cserv1_a/soc_ug/sc17sdw/flask/app/__init__.py:30]
2019-12-18 00:57:09,434 INFO: app startup [in /home/cserv1_a/soc_ug/sc17sdw/flask/app/__init__.py:30]
2019-12-18 00:58:37,293 INFO: app startup [in /home/cserv1_a/soc_ug/sc17sdw/flask/app/__init__.py:30]
2019-12-18 00:58:37,293 INFO: app startup [in /home/cserv1_a/soc_ug/sc17sdw/flask/app/__init__.py:30]
2019-12-18 00:58:41,264 INFO: app startup [in /home/cserv1_a/soc_ug/sc17sdw/flask/app/__init__.py:30]
2019-12-18 00:59:15,716 INFO: app startup [in /home/cserv1_a/soc_ug/sc17sdw/flask/app/__init__.py:30]
2019-12-18 01:02:47,488 INFO: app startup [in /home/cserv1_a/soc_ug/sc17sdw/flask/app/__init__.py:30]
2019-12-18 01:04:13,782 INFO: app startup [in /home/cserv1_a/soc_ug/sc17sdw/flask/app/__init__.py:30]
2019-12-18 01:04:13,782 INFO: app startup [in /home/cserv1_a/soc_ug/sc17sdw/flask/app/__init__.py:30]
2019-12-18 01:04:20,722 INFO: app startup [in /home/cserv1_a/soc_ug/sc17sdw/flask/app/__init__.py:30]
2019-12-18 01:04:21,307 INFO: app startup [in /home/cserv1_a/soc_ug/sc17sdw/flask/app/__init__.py:30]
2019-12-18 01:04:22,360 INFO: {} [in /home/cserv1_a/soc_ug/sc17sdw/flask/app/views.py:147]
2019-12-18 01:04:30,293 INFO: {'email': [u'Invalid email address.']} [in /home/cserv1_a/soc_ug/sc17sdw/flask/app/views.py:147]
2019-12-18 01:05:02,179 INFO: app startup [in /home/cserv1_a/soc_ug/sc17sdw/flask/app/__init__.py:30]
2019-12-18 01:05:53,076 INFO: app startup [in /home/cserv1_a/soc_ug/sc17sdw/flask/app/__init__.py:30]
2019-12-18 01:06:04,331 INFO: app startup [in /home/cserv1_a/soc_ug/sc17sdw/flask/app/__init__.py:30]
2019-12-18 01:06:24,669 INFO: app startup [in /home/cserv1_a/soc_ug/sc17sdw/flask/app/__init__.py:30]
2019-12-18 01:06:52,437 INFO: app startup [in /home/cserv1_a/soc_ug/sc17sdw/flask/app/__init__.py:30]
2019-12-18 01:06:52,437 INFO: app startup [in /home/cserv1_a/soc_ug/sc17sdw/flask/app/__init__.py:30]
2019-12-18 01:06:59,106 INFO: app startup [in /home/cserv1_a/soc_ug/sc17sdw/flask/app/__init__.py:30]
2019-12-18 01:07:04,551 INFO: app startup [in /home/cserv1_a/soc_ug/sc17sdw/flask/app/__init__.py:30]
2019-12-18 01:07:05,086 INFO: app startup [in /home/cserv1_a/soc_ug/sc17sdw/flask/app/__init__.py:30]
2019-12-18 01:07:11,191 INFO: {} [in /home/cserv1_a/soc_ug/sc17sdw/flask/app/views.py:147]
2019-12-18 01:07:12,068 INFO: {} [in /home/cserv1_a/soc_ug/sc17sdw/flask/app/views.py:147]
2019-12-18 01:07:20,554 INFO: {'repeatPassword': [u"Invalid field name '<UnboundField(StringField, ('Enter Password',), {'widget': <wtforms.widgets.core.PasswordInput object at 0x7f77a39a3890>, 'validators': [<wtforms.validators.DataRequired object at 0x7f77a39a3810>, <wtforms.validators.Length object at 0x7f77a39a3850>]})>'."], 'email': [u'Invalid email address.']} [in /home/cserv1_a/soc_ug/sc17sdw/flask/app/views.py:147]
2019-12-18 01:08:26,859 INFO: app startup [in /home/cserv1_a/soc_ug/sc17sdw/flask/app/__init__.py:30]
2019-12-18 01:08:35,184 INFO: {'password': ['Passwords must match'], 'email': [u'Invalid email address.']} [in /home/cserv1_a/soc_ug/sc17sdw/flask/app/views.py:147]
2019-12-18 01:08:48,139 INFO: app startup [in /home/cserv1_a/soc_ug/sc17sdw/flask/app/__init__.py:30]
2019-12-18 01:09:08,968 INFO: app startup [in /home/cserv1_a/soc_ug/sc17sdw/flask/app/__init__.py:30]
2019-12-18 01:09:19,982 INFO: app startup [in /home/cserv1_a/soc_ug/sc17sdw/flask/app/__init__.py:30]
2019-12-18 01:09:30,419 INFO: app startup [in /home/cserv1_a/soc_ug/sc17sdw/flask/app/__init__.py:30]
2019-12-18 01:09:34,444 INFO: app startup [in /home/cserv1_a/soc_ug/sc17sdw/flask/app/__init__.py:30]
2019-12-18 01:09:50,583 INFO: app startup [in /home/cserv1_a/soc_ug/sc17sdw/flask/app/__init__.py:30]
2019-12-18 01:14:15,515 INFO: app startup [in /home/cserv1_a/soc_ug/sc17sdw/flask/app/__init__.py:30]
