2019-12-18 01:14:15,515 INFO: app startup [in /home/cserv1_a/soc_ug/sc17sdw/flask/app/__init__.py:30]
2019-12-18 01:14:23,419 INFO: app startup [in /home/cserv1_a/soc_ug/sc17sdw/flask/app/__init__.py:30]
2019-12-18 01:14:23,419 INFO: app startup [in /home/cserv1_a/soc_ug/sc17sdw/flask/app/__init__.py:30]
2019-12-18 01:14:25,147 INFO: {'password': ['Passwords must match'], 'email': [u'Invalid email address.']} [in /home/cserv1_a/soc_ug/sc17sdw/flask/app/views.py:147]
2019-12-18 01:14:25,147 INFO: {'password': ['Passwords must match'], 'email': [u'Invalid email address.']} [in /home/cserv1_a/soc_ug/sc17sdw/flask/app/views.py:147]
